{
  "tableau": {
    "password": "s7?Ld0tc89268,clTJDEzX6",
    "serverName": "obksvwcq26.res.intra.orangebank.com",
    "user": "RESOBK\\S_ADMIN_TABLEAU",
    "utilityFolderPath": "C:\\Program Files\\Tableau\\Tableau Server\\2018.3\\extras\\Command Line Utility"
  }
}