{
  "sqlserver": {
    "parameterServer": "OBKSVWCP12",
    "parameterDatabase": "SIDP_DataFactory",
    "logsDatabase": "SIDP_DataHub",
    "parameterTable": "PARAM_EXTRACT_SIDP",
    "logsTable": "Data_Log"
  }
}