{
  "SQLServer": {
    "ReferenceServer": "OBKSVWCQ12\\INSTQ00",
    "ReferenceDatabase": "SIDP_DataFactory",
    "ReferenceEnvironmentsTable": "Ref_FrontEnd_Environments",
    "ReferenceTablesTable": "Ref_FrontEnd_Tables",
    "ReferenceColumnsTable": "Ref_FrontEnd_Columns",
    "LogsDatabase": "SIDP_DataHub",
    "LogsTable": "Data_Log"
  }
}